…
#> 
#>     intersect, setdiff, setequal, union
#> Loading required package: magrittr
#> Warning: package 'magrittr' was built under R version 4.0.5
#> 
#> Attaching package: 'magrittr'
#> The following object is masked from 'package:purrr':
#> 
#>     set_names
#> The following object is masked from 'package:rlang':
#> 
#>     set_names
#> Joining, by = "cut"Joining, by = "color"Joining, by = c("cut", "color", "n",
#> "n_cut", "n_color")Joining, by = c("cut", "color", "n", "n_cut", "n_color")
#> # A tibble: 35 x 8
#> # Groups:   cut [5]
#>    cut   color     n n_cut n_color prop_cut prop_color    prop
#>    <ord> <ord> <int> <int>   <int>    <dbl>      <dbl>   <dbl>
#>  1 Fair  D       163  1610    6775   0.101      0.0241 0.00302
#>  2 Fair  E       224  1610    9797   0.139      0.0229 0.00415
#>  3 Fair  F       312  1610    9542   0.194      0.0327 0.00578
#>  4 Fair  G       314  1610   11292   0.195      0.0278 0.00582
#>  5 Fair  H       303  1610    8304   0.188      0.0365 0.00562
#>  6 Fair  I       175  1610    5422   0.109      0.0323 0.00324
#>  7 Fair  J       119  1610    2808   0.0739     0.0424 0.00221
#>  8 Good  D       662  4906    6775   0.135      0.0977 0.0123 
#>  9 Good  E       933  4906    9797   0.190      0.0952 0.0173 
#> 10 Good  F       909  4906    9542   0.185      0.0953 0.0169 
#> # ... with 25 more rows
```
…
